Resador Signed-Unsigned/simulation/qsim/rest.msim.vcd
$comment
	File created using the following command:
		vcd file rest.msim.vcd -direction
$end
$date
	Wed Jul 28 13:21:13 2021
$end
$version
	ModelSim Version 2020.1
$end
$timescale
	1ps
$end

$scope module rest_vhd_vec_tst $end
$var wire 1 ! A [3] $end
$var wire 1 " A [2] $end
$var wire 1 # A [1] $end
$var wire 1 $ A [0] $end
$var wire 1 % B [3] $end
$var wire 1 & B [2] $end
$var wire 1 ' B [1] $end
$var wire 1 ( B [0] $end
$var wire 1 ) R [4] $end
$var wire 1 * R [3] $end
$var wire 1 + R [2] $end
$var wire 1 , R [1] $end
$var wire 1 - R [0] $end
$var wire 1 . S $end

$scope module i1 $end
$var wire 1 / gnd $end
$var wire 1 0 vcc $end
$var wire 1 1 unknown $end
$var wire 1 2 devoe $end
$var wire 1 3 devclrn $end
$var wire 1 4 devpor $end
$var wire 1 5 ww_devoe $end
$var wire 1 6 ww_devclrn $end
$var wire 1 7 ww_devpor $end
$var wire 1 8 ww_A [3] $end
$var wire 1 9 ww_A [2] $end
$var wire 1 : ww_A [1] $end
$var wire 1 ; ww_A [0] $end
$var wire 1 < ww_B [3] $end
$var wire 1 = ww_B [2] $end
$var wire 1 > ww_B [1] $end
$var wire 1 ? ww_B [0] $end
$var wire 1 @ ww_S $end
$var wire 1 A ww_R [4] $end
$var wire 1 B ww_R [3] $end
$var wire 1 C ww_R [2] $end
$var wire 1 D ww_R [1] $end
$var wire 1 E ww_R [0] $end
$var wire 1 F \R[0]~output_o\ $end
$var wire 1 G \R[1]~output_o\ $end
$var wire 1 H \R[2]~output_o\ $end
$var wire 1 I \R[3]~output_o\ $end
$var wire 1 J \R[4]~output_o\ $end
$var wire 1 K \A[0]~input_o\ $end
$var wire 1 L \B[0]~input_o\ $end
$var wire 1 M \Add0~0_combout\ $end
$var wire 1 N \B[1]~input_o\ $end
$var wire 1 O \A[1]~input_o\ $end
$var wire 1 P \Add0~1\ $end
$var wire 1 Q \Add0~2_combout\ $end
$var wire 1 R \B[2]~input_o\ $end
$var wire 1 S \A[2]~input_o\ $end
$var wire 1 T \Add0~3\ $end
$var wire 1 U \Add0~4_combout\ $end
$var wire 1 V \B[3]~input_o\ $end
$var wire 1 W \A[3]~input_o\ $end
$var wire 1 X \Add0~5\ $end
$var wire 1 Y \Add0~6_combout\ $end
$var wire 1 Z \S~input_o\ $end
$var wire 1 [ \Add0~7\ $end
$var wire 1 \ \Add0~8_combout\ $end
$var wire 1 ] \R~0_combout\ $end
$upscope $end
$upscope $end
$enddefinitions $end
#0
$dumpvars
0.
0/
10
x1
12
13
14
15
16
17
0@
1F
1G
1H
1I
1J
0K
1L
1M
0N
0O
0P
1Q
0R
0S
1T
1U
0V
0W
0X
1Y
0Z
1[
1\
1]
0!
0"
0#
0$
0%
0&
0'
1(
08
09
0:
0;
0<
0=
0>
1?
1A
1B
1C
1D
1E
1)
1*
1+
1,
1-
$end
#1000000
1'
0(
0?
1>
1N
0L
0M
1P
0Q
1Q
0G
0F
0D
0E
1G
0-
0,
1D
1,
#2000000
1(
1?
1L
1M
0P
0Q
1F
1E
0G
1-
0D
0,
#3000000
0(
0'
1&
0?
0>
1=
1R
0N
0L
0M
1P
1Q
0U
0Q
0T
1U
0H
1G
0F
0C
1D
0E
0G
0-
1,
0+
0D
1H
0,
1C
1+
#4000000
1(
1?
1L
1M
0P
1Q
1T
0U
1F
1E
1G
1-
1D
0H
1,
0C
0+
#5000000
0(
1'
0?
1>
1N
0L
0M
1P
0Q
1Q
0G
0F
0D
0E
1G
0-
0,
1D
1,
#6000000
1(
1?
1L
1M
0P
0Q
1F
1E
0G
1-
0D
0,
#7000000
0(
0'
0&
1%
0?
0>
0=
1<
1V
0R
0N
0L
0M
1P
1Q
1U
0Y
0Q
0T
0U
1X
0I
1H
1G
0F
1Y
0B
1C
1D
0E
0G
0-
1,
1+
0*
0D
0H
0,
0C
1I
0+
1B
1*
#8000000
1(
0%
1.
1?
0<
1@
1Z
0V
1L
1M
0P
0Y
0[
0]
0\
1Q
1T
1U
0X
0J
0I
1F
1Y
1[
0A
0B
1E
1G
1-
0*
0)
1\
1D
1H
1,
1C
1I
1+
1B
1*
#9000000
0(
1'
0?
1>
1N
0L
0M
1P
0Q
1Q
0G
0F
0D
0E
1G
0-
0,
1D
1,
#10000000
1(
1?
1L
1M
0P
0Q
1F
1E
0G
1-
0D
0,
#11000000
0(
0'
1&
0?
0>
1=
1R
0N
0L
0M
1P
1Q
0U
0Q
0T
1U
0H
1G
0F
0C
1D
0E
0G
0-
1,
0+
0D
1H
0,
1C
1+
#12000000
1(
1?
1L
1M
0P
1Q
1T
0U
1F
1E
1G
1-
1D
0H
1,
0C
0+
#13000000
0(
1'
0?
1>
1N
0L
0M
1P
0Q
1Q
0G
0F
0D
0E
1G
0-
0,
1D
1,
#14000000
1(
1?
1L
1M
0P
0Q
1F
1E
0G
1-
0D
0,
#15000000
0(
0'
0&
1%
0?
0>
0=
1<
1V
0R
0N
0L
0M
1P
1Q
1U
0Y
0Q
0T
0U
1X
0I
1H
1G
0F
1Y
0B
1C
1D
0E
0G
0-
1,
1+
0*
0D
0H
0,
0C
1I
0+
1B
1*
